Unsupervised Learning Based Definition of Microbial Rare Biosphere • ulrb
…
# install.packages("devtools")
devtools::install_github("pascoalf/ulrb")

We are working on a CRAN publication. We will then provide instructions for CRAN installation.

Example

This is a basic example which shows you how to use ulrb to divide taxa into three classifications (rare, undetermined and abundant):

library(ulrb)
## basic example
define_rb(nice_tidy)
#> Joining with `by = join_by(Sample, Level)`
#> # A tibble: 2,177 × 17
#> # Groups:   Sample, Classification [27]
#>    Sample    Classification OTU   Domain Phylum Class Order Family Genus Species
#>    <chr>     <fct>          <chr> <chr>  <chr>  <chr> <chr> <chr>  <chr> <chr>  
#>  1 ERR20446… Rare           OTU_2 sk__A… p__Eu… c__C… <NA>  <NA>   <NA>  <NA>   
#>  2 ERR20446… Rare           OTU_5 sk__A… p__Eu… c__T… <NA>  <NA>   <NA>  <NA>   
#>  3 ERR20446… Rare           OTU_6 sk__A… p__Th… <NA>  <NA>  <NA>   <NA>  <NA>   
#>  4 ERR20446… Rare           OTU_7 sk__A… p__Th… c__   o__   f__    g__C… <NA>   
#>  5 ERR20446… Rare           OTU_8 sk__A… p__Th… c__   o__N… <NA>   <NA>  <NA>   
#>  6 ERR20446… Rare           OTU_… sk__A… p__Th… c__   o__N… f__Ni… g__N… <NA>   
#>  7 ERR20446… Rare           OTU_… sk__B… p__Ac… <NA>  <NA>  <NA>   <NA>  <NA>   
#>  8 ERR20446… Rare           OTU_… sk__B… p__Ac… c__A… o__A… <NA>   <NA>  <NA>   
#>  9 ERR20446… Rare           OTU_… sk__B… p__Ac… <NA>  <NA>  <NA>   <NA>  <NA>   
#> 10 ERR20446… Rare           OTU_… sk__B… p__Ac… c__A… <NA>  <NA>   <NA>  <NA>   
#> # ℹ 2,167 more rows
#> # ℹ 7 more variables: Abundance <int>, pam_object <list>, Level <fct>,
#> #   Silhouette_scores <dbl>, Cluster_median_abundance <dbl>,
#> #   median_Silhouette <dbl>, Evaluation <chr>
…
