Define Rare Biosphere — define_rb • ulrb
…
# If data is in wide format, with samples in cols
nice_tidy <- prepare_tidy_data(nice,
                               sample_names = sample_names,
                               samples_in = "cols")

# Straightforward with tidy format
define_rb(nice_tidy)
#> Joining with `by = join_by(Sample, Level)`
#> # A tibble: 2,177 × 17
#> # Groups:   Sample, Classification [27]
#>    Sample    Classification OTU   Domain Phylum Class Order Family Genus Species
#>    <chr>     <fct>          <chr> <chr>  <chr>  <chr> <chr> <chr>  <chr> <chr>  
#>  1 ERR20446… Rare           OTU_2 sk__A… p__Eu… c__C… NA    NA     NA    NA     
#>  2 ERR20446… Rare           OTU_5 sk__A… p__Eu… c__T… NA    NA     NA    NA     
#>  3 ERR20446… Rare           OTU_6 sk__A… p__Th… NA    NA    NA     NA    NA     
#>  4 ERR20446… Rare           OTU_7 sk__A… p__Th… c__   o__   f__    g__C… NA     
#>  5 ERR20446… Rare           OTU_8 sk__A… p__Th… c__   o__N… NA     NA    NA     
#>  6 ERR20446… Rare           OTU_… sk__A… p__Th… c__   o__N… f__Ni… g__N… NA     
#>  7 ERR20446… Rare           OTU_… sk__B… p__Ac… NA    NA    NA     NA    NA     
#>  8 ERR20446… Rare           OTU_… sk__B… p__Ac… c__A… o__A… NA     NA    NA     
#>  9 ERR20446… Rare           OTU_… sk__B… p__Ac… NA    NA    NA     NA    NA     
#> 10 ERR20446… Rare           OTU_… sk__B… p__Ac… c__A… NA    NA     NA    NA     
#> # ℹ 2,167 more rows
#> # ℹ 7 more variables: Abundance <int>, pam_object <list>, Level <fct>,
#> #   Silhouette_scores <dbl>, Cluster_median_abundance <dbl>,
#> #   median_Silhouette <dbl>, Evaluation <chr>
…
# Automatic decision, instead of a predefined definition
define_rb(nice_tidy, automatic = TRUE) %>% select(Sample, Abundance, Classification)
#> Automatic option set to TRUE, so classification vector was overwritten
#> K= 3 based on Average Silhouette Score.
#> Joining with `by = join_by(Sample, Level)`
#> # A tibble: 2,177 × 3
#> # Groups:   Sample, Classification [27]
#>    Sample     Abundance Classification
#>    <chr>          <int> <fct>         
#>  1 ERR2044662       165 1             
#>  2 ERR2044662       541 1             
#>  3 ERR2044662         8 1             
#>  4 ERR2044662        15 1             
#>  5 ERR2044662         5 1             
#>  6 ERR2044662         4 1             
#>  7 ERR2044662        19 1             
#>  8 ERR2044662         1 1             
#>  9 ERR2044662        61 1             
#> 10 ERR2044662       123 1             
#> # ℹ 2,167 more rows

# Automatic decision, using Davies-Bouldin index,
# instead of average Silhouette score (default)
define_rb(nice_tidy, automatic = TRUE, index = "Davies-Bouldin") %>%
select(Sample, Abundance, Classification)
#> Automatic option set to TRUE, so classification vector was overwritten
#> K= 6 based on Davies-Bouldin.
#> Joining with `by = join_by(Sample, Level)`
#> Warning: 1 samples got a bad Silhouette score. Consider changing the number of classifications.
#> If half the observations within a classification are below 0.5 Silhouette score, we consider that the clustering was 'Bad'.
#> Check 'Evaluation' collumn for more details.
#> # A tibble: 2,177 × 3
#> # Groups:   Sample, Classification [54]
#>    Sample     Abundance Classification
#>    <chr>          <int> <fct>         
#>  1 ERR2044662       165 2             
#>  2 ERR2044662       541 2             
#>  3 ERR2044662       190 2             
#>  4 ERR2044662       374 2             
#>  5 ERR2044662       308 2             
#>  6 ERR2044662       261 2             
#>  7 ERR2044662       196 2             
#>  8 ERR2044662       576 2             
#>  9 ERR2044662       264 2             
#> 10 ERR2044662       308 2             
#> # ℹ 2,167 more rows

# User defined classifications
user_classifications <- c("very rare",
                          "rare",
                          "undetermined",
                          "abundant",
                          "very abundant")

define_rb(nice_tidy, classification_vector = user_classifications) %>%
select(Sample, Abundance, Classification)
#> Joining with `by = join_by(Sample, Level)`
#> # A tibble: 2,177 × 3
#> # Groups:   Sample, Classification [45]
#>    Sample     Abundance Classification
#>    <chr>          <int> <fct>         
#>  1 ERR2044662       165 very rare     
#>  2 ERR2044662         8 very rare     
#>  3 ERR2044662        15 very rare     
#>  4 ERR2044662         5 very rare     
#>  5 ERR2044662         4 very rare     
#>  6 ERR2044662        19 very rare     
#>  7 ERR2044662         1 very rare     
#>  8 ERR2044662        61 very rare     
#>  9 ERR2044662       123 very rare     
#> 10 ERR2044662         1 very rare     
#> # ℹ 2,167 more rows

# Easy to incorporate in big pipes
# Remove Archaea
# Remove taxa below 10 reads
# Classify according to a different set of classifications
nice_tidy %>%
 filter(Domain != "sk__Archaea") %>%
 filter(Abundance > 10) %>%
 define_rb(classification_vector = c("very rare",
                                     "rare",
                                     "abundant",
                                     "very abundant")) %>%
 select(Sample, Abundance, Classification)
#> Joining with `by = join_by(Sample, Level)`
#> # A tibble: 885 × 3
#> # Groups:   Sample, Classification [36]
#>    Sample     Abundance Classification
#>    <chr>          <int> <fct>         
#>  1 ERR2044662        19 very rare     
#>  2 ERR2044662        61 very rare     
#>  3 ERR2044662       123 very rare     
#>  4 ERR2044662        75 very rare     
#>  5 ERR2044662        24 very rare     
#>  6 ERR2044662       190 very rare     
#>  7 ERR2044662        13 very rare     
#>  8 ERR2044662        23 very rare     
#>  9 ERR2044662        20 very rare     
#> 10 ERR2044662       374 very rare     
#> # ℹ 875 more rows
 # An example that summarises results
nice_tidy %>%
 filter(Domain != "sk__Archaea") %>%
 filter(Abundance > 10) %>%
 define_rb(classification_vector = c("very rare",
                                     "rare",
                                     "abundant",
                                     "very abundant")) %>%
 select(Sample, Abundance, Classification) %>%
 group_by(Sample, Classification) %>%
 summarise(totalAbundance = sum(Abundance))
#> Joining with `by = join_by(Sample, Level)`
#> `summarise()` has grouped output by 'Sample'. You can override using the
#> `.groups` argument.
#> # A tibble: 36 × 3
#> # Groups:   Sample [9]
#>    Sample     Classification totalAbundance
#>    <chr>      <fct>                   <int>
#>  1 ERR2044662 very rare                5842
#>  2 ERR2044662 rare                     8632
#>  3 ERR2044662 abundant                12953
#>  4 ERR2044662 very abundant           24242
#>  5 ERR2044663 very rare                9555
#>  6 ERR2044663 rare                    12622
#>  7 ERR2044663 abundant                14846
#>  8 ERR2044663 very abundant           28412
#>  9 ERR2044664 very rare                3143
#> 10 ERR2044664 rare                     6306
#> # ℹ 26 more rows
…
