Tutorial to define rare biosphere with ulrb • ulrb
…
# Simple automation example
define_rb(nice_tidy, automatic =  TRUE)
#> Automatic option set to TRUE, so classification vector was overwritten
#> K= 3 based on Average Silhouette Score.
#> Joining with `by = join_by(Sample, Level)`
#> # A tibble: 2,177 × 17
#> # Groups:   Sample, Classification [27]
#>    Sample    Classification OTU   Domain Phylum Class Order Family Genus Species
#>    <chr>     <fct>          <chr> <chr>  <chr>  <chr> <chr> <chr>  <chr> <chr>  
#>  1 ERR20446… 1              OTU_2 sk__A… p__Eu… c__C… NA    NA     NA    NA     
#>  2 ERR20446… 1              OTU_5 sk__A… p__Eu… c__T… NA    NA     NA    NA     
#>  3 ERR20446… 1              OTU_6 sk__A… p__Th… NA    NA    NA     NA    NA     
#>  4 ERR20446… 1              OTU_7 sk__A… p__Th… c__   o__   f__    g__C… NA     
#>  5 ERR20446… 1              OTU_8 sk__A… p__Th… c__   o__N… NA     NA    NA     
#>  6 ERR20446… 1              OTU_… sk__A… p__Th… c__   o__N… f__Ni… g__N… NA     
#>  7 ERR20446… 1              OTU_… sk__B… p__Ac… NA    NA    NA     NA    NA     
#>  8 ERR20446… 1              OTU_… sk__B… p__Ac… c__A… o__A… NA     NA    NA     
#>  9 ERR20446… 1              OTU_… sk__B… p__Ac… NA    NA    NA     NA    NA     
#> 10 ERR20446… 1              OTU_… sk__B… p__Ac… c__A… NA    NA     NA    NA     
#> # ℹ 2,167 more rows
#> # ℹ 7 more variables: Abundance <int>, pam_object <list>, Level <fct>,
#> #   Silhouette_scores <dbl>, Cluster_median_abundance <dbl>,
#> #   median_Silhouette <dbl>, Evaluation <chr>
…
